RTL/signals.vcd
$date
	Thu Dec 01 20:57:56 2022
$end
$version
	Icarus Verilog
$end
$timescale
	1ps
$end
$scope module testbench $end
$var wire 4 ! status_rtl [3:0] $end
$var wire 4 " status [3:0] $end
$var wire 4 # result_rtl [3:0] $end
$var wire 4 $ result [3:0] $end
$var parameter 32 % BITS_1 $end
$var parameter 32 & BITS_2 $end
$var reg 4 ' a [3:0] $end
$var reg 4 ( b [3:0] $end
$var reg 1 ) clk $end
$var reg 2 * oper [1:0] $end
$var reg 1 + rsn $end
$scope module m_exe_unit_w1 $end
$var wire 4 , i_argA [3:0] $end
$var wire 4 - i_argB [3:0] $end
$var wire 1 ) i_clk $end
$var wire 2 . i_oper [1:0] $end
$var wire 1 + i_rsn $end
$var wire 4 / o_status4 [3:0] $end
$var wire 4 0 o_status3 [3:0] $end
$var wire 4 1 o_status2 [3:0] $end
$var wire 4 2 o_status1 [3:0] $end
$var wire 4 3 o_result4 [3:0] $end
$var wire 4 4 o_result3 [3:0] $end
$var wire 4 5 o_result2 [3:0] $end
$var wire 4 6 o_result1 [3:0] $end
$var parameter 32 7 m $end
$var parameter 32 8 n $end
$var reg 4 9 new_result [3:0] $end
$var reg 4 : new_status [3:0] $end
$var reg 4 ; o_result [3:0] $end
$var reg 4 < o_status [3:0] $end
$scope module m_mod1 $end
$var wire 4 = i_argA [3:0] $end
$var wire 4 > i_argB [3:0] $end
$var parameter 32 ? m $end
$var parameter 32 @ n $end
$var reg 1 A checkFlag $end
$var reg 4 B maxValue [3:0] $end
$var reg 4 C o_result [3:0] $end
$var reg 4 D o_status [3:0] $end
$var reg 1 E sign1 $end
$var reg 1 F sign2 $end
$var reg 4 G status [3:0] $end
$var reg 4 H temp [3:0] $end
$var reg 4 I temp1 [3:0] $end
$var reg 4 J temp2 [3:0] $end
$var integer 32 K x [31:0] $end
$scope begin $ivl_for_loop0 $end
$var integer 32 L i [31:0] $end
$upscope $end
$scope begin $ivl_for_loop1 $end
$var integer 32 M i [31:0] $end
$upscope $end
$upscope $end
$scope module m_mod2 $end
$var wire 4 N i_argA [3:0] $end
$var wire 4 O i_argB [3:0] $end
$var parameter 32 P m $end
$var parameter 32 Q n $end
$var reg 4 R o_result [3:0] $end
$var reg 4 S o_status [3:0] $end
$var reg 1 T sign1 $end
$var reg 1 U sign2 $end
$var reg 4 V status [3:0] $end
$var reg 4 W temp [3:0] $end
$var reg 4 X temp1 [3:0] $end
$var reg 4 Y temp2 [3:0] $end
$var integer 32 Z x [31:0] $end
$scope begin $ivl_for_loop2 $end
$var integer 32 [ i [31:0] $end
$upscope $end
$scope begin $ivl_for_loop3 $end
$var integer 32 \ i [31:0] $end
$upscope $end
$upscope $end
$scope module m_mod3 $end
$var wire 4 ] i_argA [3:0] $end
$var wire 4 ^ i_argB [3:0] $end
$var parameter 32 _ m $end
$var parameter 32 ` n $end
$var reg 4 a o_result [3:0] $end
$var reg 4 b o_status [3:0] $end
$var reg 1 c sign1 $end
$var reg 4 d status [3:0] $end
$var reg 4 e temp [3:0] $end
$var integer 32 f x [31:0] $end
$scope begin $ivl_for_loop4 $end
$var integer 32 g i [31:0] $end
$upscope $end
$scope begin $ivl_for_loop5 $end
$var integer 32 h i [31:0] $end
$upscope $end
$upscope $end
$scope module m_mod4 $end
$var wire 4 i i_argA [3:0] $end
$var parameter 32 j m $end
$var parameter 32 k n $end
$var reg 4 l o_result [3:0] $end
$var reg 4 m o_status [3:0] $end
$var reg 1 n sign1 $end
$var reg 4 o status [3:0] $end
$var reg 4 p temp [3:0] $end
$var integer 32 q x [31:0] $end
$scope begin $ivl_for_loop6 $end
$var integer 32 r i [31:0] $end
$upscope $end
$scope begin $ivl_for_loop7 $end
$var integer 32 s i [31:0] $end
$upscope $end
$upscope $end
$upscope $end
$scope module m_exe_unit_w1_rtl $end
$var wire 1 t _000_ $end
$var wire 1 u _001_ $end
$var wire 1 v _002_ $end
$var wire 1 w _003_ $end
$var wire 1 x _004_ $end
$var wire 1 y _005_ $end
$var wire 1 z _006_ $end
$var wire 1 { _007_ $end
$var wire 1 | _008_ $end
$var wire 1 } _009_ $end
$var wire 1 ~ _010_ $end
$var wire 1 !" _011_ $end
$var wire 1 "" _012_ $end
$var wire 1 #" _013_ $end
$var wire 1 $" _014_ $end
$var wire 1 %" _015_ $end
$var wire 1 &" _016_ $end
$var wire 1 '" _017_ $end
$var wire 1 (" _018_ $end
$var wire 1 )" _019_ $end
$var wire 1 *" _020_ $end
$var wire 1 +" _021_ $end
$var wire 1 ," _022_ $end
$var wire 1 -" _023_ $end
$var wire 1 ." _024_ $end
$var wire 1 /" _025_ $end
$var wire 1 0" _026_ $end
$var wire 1 1" _027_ $end
$var wire 1 2" _028_ $end
$var wire 1 3" _029_ $end
$var wire 1 4" _030_ $end
$var wire 1 5" _031_ $end
$var wire 1 6" _032_ $end
$var wire 1 7" _033_ $end
$var wire 1 8" _034_ $end
$var wire 1 9" _035_ $end
$var wire 1 :" _036_ $end
$var wire 1 ;" _037_ $end
$var wire 1 <" _038_ $end
$var wire 1 =" _039_ $end
$var wire 1 >" _040_ $end
$var wire 1 ?" _041_ $end
$var wire 1 @" _042_ $end
$var wire 1 A" _043_ $end
$var wire 1 B" _044_ $end
$var wire 1 C" _045_ $end
$var wire 1 D" _046_ $end
$var wire 1 E" _047_ $end
$var wire 1 F" _048_ $end
$var wire 1 G" _049_ $end
$var wire 1 H" _050_ $end
$var wire 1 I" _051_ $end
$var wire 1 J" _052_ $end
$var wire 1 K" _053_ $end
$var wire 4 L" i_argA [3:0] $end
$var wire 4 M" i_argB [3:0] $end
$var wire 1 ) i_clk $end
$var wire 2 N" i_oper [1:0] $end
$var wire 1 + i_rsn $end
$var wire 4 O" o_status4 [3:0] $end
$var wire 4 P" o_status3 [3:0] $end
$var wire 4 Q" o_status2 [3:0] $end
$var wire 4 R" o_status1 [3:0] $end
$var wire 4 S" o_result4 [3:0] $end
$var wire 4 T" o_result3 [3:0] $end
$var wire 4 U" o_result2 [3:0] $end
$var wire 4 V" o_result1 [3:0] $end
$var wire 4 W" new_status [3:0] $end
$var wire 4 X" new_result [3:0] $end
$var reg 4 Y" o_result [3:0] $end
$var reg 4 Z" o_status [3:0] $end
$scope module m_mod1 $end
$var wire 1 [" _000_ $end
$var wire 1 \" _001_ $end
$var wire 1 ]" _002_ $end
$var wire 1 ^" _003_ $end
$var wire 1 _" _004_ $end
$var wire 1 `" _005_ $end
$var wire 1 a" _006_ $end
$var wire 1 b" _007_ $end
$var wire 1 c" _008_ $end
$var wire 1 d" _009_ $end
$var wire 1 e" _010_ $end
$var wire 1 f" _011_ $end
$var wire 1 g" _012_ $end
$var wire 1 h" _013_ $end
$var wire 1 i" _014_ $end
$var wire 1 j" _015_ $end
$var wire 1 k" _016_ $end
$var wire 1 l" _017_ $end
$var wire 1 m" _018_ $end
$var wire 1 n" _019_ $end
$var wire 1 o" _020_ $end
$var wire 1 p" _021_ $end
$var wire 1 q" _022_ $end
$var wire 1 r" _023_ $end
$var wire 1 s" _024_ $end
$var wire 1 t" _025_ $end
$var wire 1 u" _026_ $end
$var wire 1 v" _027_ $end
$var wire 1 w" _028_ $end
$var wire 1 x" _029_ $end
$var wire 1 y" _030_ $end
$var wire 1 z" _031_ $end
$var wire 1 {" _032_ $end
$var wire 1 |" _033_ $end
$var wire 1 }" _034_ $end
$var wire 1 ~" _035_ $end
$var wire 1 !# _036_ $end
$var wire 1 "# _037_ $end
$var wire 1 ## _038_ $end
$var wire 1 $# _039_ $end
$var wire 1 %# _040_ $end
$var wire 1 &# _041_ $end
$var wire 1 '# _042_ $end
$var wire 1 (# _043_ $end
$var wire 1 )# _044_ $end
$var wire 1 *# _045_ $end
$var wire 1 +# _046_ $end
$var wire 1 ,# _047_ $end
$var wire 1 -# _048_ $end
$var wire 1 .# _049_ $end
$var wire 1 /# _050_ $end
$var wire 1 0# _051_ $end
$var wire 1 1# _052_ $end
$var wire 1 2# _053_ $end
$var wire 1 3# _054_ $end
$var wire 1 4# _055_ $end
$var wire 1 5# _056_ $end
$var wire 1 6# _057_ $end
$var wire 1 7# _058_ $end
$var wire 1 8# _059_ $end
$var wire 1 9# _060_ $end
$var wire 1 :# _061_ $end
$var wire 1 ;# _062_ $end
$var wire 1 <# _063_ $end
$var wire 1 =# _064_ $end
$var wire 1 ># _065_ $end
$var wire 1 ?# _066_ $end
$var wire 1 @# _067_ $end
$var wire 1 A# _068_ $end
$var wire 1 B# _069_ $end
$var wire 1 C# _070_ $end
$var wire 1 D# _071_ $end
$var wire 1 E# _072_ $end
$var wire 1 F# _073_ $end
$var wire 1 G# _074_ $end
$var wire 1 H# _075_ $end
$var wire 1 I# checkFlag $end
$var wire 4 J# i_argA [3:0] $end
$var wire 4 K# i_argB [3:0] $end
$var wire 4 L# maxValue [3:0] $end
$var wire 4 M# temp [3:0] $end
$var wire 4 N# temp1 [3:0] $end
$var wire 4 O# temp2 [3:0] $end
$var wire 4 P# status [3:0] $end
$var wire 1 Q# sign2 $end
$var wire 1 R# sign1 $end
$var wire 4 S# o_status [3:0] $end
$var wire 4 T# o_result [3:0] $end
$upscope $end
$scope module m_mod2 $end
$var wire 1 U# _00_ $end
$var wire 1 V# _01_ $end
$var wire 1 W# _02_ $end
$var wire 1 X# _03_ $end
$var wire 1 Y# _04_ $end
$var wire 1 Z# _05_ $end
$var wire 1 [# _06_ $end
$var wire 1 \# _07_ $end
$var wire 1 ]# _08_ $end
$var wire 1 ^# _09_ $end
$var wire 1 _# _10_ $end
$var wire 1 `# _11_ $end
$var wire 1 a# _12_ $end
$var wire 1 b# _13_ $end
$var wire 1 c# _14_ $end
$var wire 1 d# _15_ $end
$var wire 1 e# _16_ $end
$var wire 1 f# _17_ $end
$var wire 1 g# _18_ $end
$var wire 1 h# _19_ $end
$var wire 1 i# _20_ $end
$var wire 1 j# _21_ $end
$var wire 1 k# _22_ $end
$var wire 1 l# _23_ $end
$var wire 1 m# _24_ $end
$var wire 1 n# _25_ $end
$var wire 1 o# _26_ $end
$var wire 1 p# _27_ $end
$var wire 1 q# _28_ $end
$var wire 1 r# _29_ $end
$var wire 1 s# _30_ $end
$var wire 1 t# _31_ $end
$var wire 1 u# _32_ $end
$var wire 1 v# _33_ $end
$var wire 1 w# _34_ $end
$var wire 1 x# _35_ $end
$var wire 1 y# _36_ $end
$var wire 4 z# i_argA [3:0] $end
$var wire 4 {# i_argB [3:0] $end
$var wire 4 |# temp1 [3:0] $end
$var wire 4 }# temp2 [3:0] $end
$var wire 32 ~# x [31:0] $end
$var wire 4 !$ temp [3:0] $end
$var wire 4 "$ status [3:0] $end
$var wire 1 #$ sign2 $end
$var wire 1 $$ sign1 $end
$var wire 4 %$ o_status [3:0] $end
$var wire 4 &$ o_result [3:0] $end
$upscope $end
$scope module m_mod3 $end
$var wire 1 '$ _00_ $end
$var wire 1 ($ _01_ $end
$var wire 1 )$ _02_ $end
$var wire 1 *$ _03_ $end
$var wire 1 +$ _04_ $end
$var wire 1 ,$ _05_ $end
$var wire 1 -$ _06_ $end
$var wire 1 .$ _07_ $end
$var wire 1 /$ _08_ $end
$var wire 1 0$ _09_ $end
$var wire 1 1$ _10_ $end
$var wire 1 2$ _11_ $end
$var wire 1 3$ _12_ $end
$var wire 1 4$ _13_ $end
$var wire 1 5$ _14_ $end
$var wire 1 6$ _15_ $end
$var wire 1 7$ _16_ $end
$var wire 1 8$ _17_ $end
$var wire 1 9$ _18_ $end
$var wire 1 :$ _19_ $end
$var wire 1 ;$ _20_ $end
$var wire 1 <$ _21_ $end
$var wire 4 =$ i_argA [3:0] $end
$var wire 4 >$ i_argB [3:0] $end
$var wire 4 ?$ status [3:0] $end
$var wire 32 @$ x [31:0] $end
$var wire 4 A$ temp [3:0] $end
$var wire 1 B$ sign1 $end
$var wire 4 C$ o_status [3:0] $end
$var wire 4 D$ o_result [3:0] $end
$upscope $end
$scope module m_mod4 $end
$var wire 1 E$ _00_ $end
$var wire 1 F$ _01_ $end
$var wire 1 G$ _02_ $end
$var wire 1 H$ _03_ $end
$var wire 1 I$ _04_ $end
$var wire 1 J$ _05_ $end
$var wire 1 K$ _06_ $end
$var wire 1 L$ _07_ $end
$var wire 1 M$ _08_ $end
$var wire 1 N$ _09_ $end
$var wire 1 O$ _10_ $end
$var wire 4 P$ i_argA [3:0] $end
$var wire 4 Q$ temp [3:0] $end
$var wire 4 R$ status [3:0] $end
$var wire 1 S$ sign1 $end
$var wire 4 T$ o_status [3:0] $end
$var wire 4 U$ o_result [3:0] $end
$upscope $end
$upscope $end
$upscope $end
$enddefinitions $end
$comment Show the parameter values. $end
$dumpall
b10 k
b100 j
b10 `
b100 _
b10 Q
b100 P
b10 @
b100 ?
b10 8
b100 7
b10 &
b100 %
$end
#0
$dumpvars
b1001 U$
b110 T$
1S$
b110 R$
b1zz1 Q$
b1111 P$
0O$
1N$
1M$
0L$
1K$
0J$
1I$
0H$
1G$
1F$
0E$
b1110 D$
b10 C$
0B$
b1zzz A$
b0zzzz @$
b10 ?$
b0 >$
b1111 =$
0<$
0;$
1:$
09$
08$
07$
16$
15$
14$
03$
12$
11$
10$
1/$
1.$
1-$
0,$
1+$
1*$
1)$
1($
1'$
b1 &$
b0 %$
1$$
0#$
b0 "$
b1 !$
b1 ~#
b0xxx }#
b0xxx |#
b0 {#
b1111 z#
0y#
1x#
1w#
0v#
0u#
1t#
1s#
0r#
1q#
0p#
0o#
1n#
0m#
1l#
1k#
0j#
1i#
0h#
0g#
1f#
1e#
0d#
1c#
0b#
0a#
1`#
1_#
0^#
1]#
0\#
0[#
1Z#
1Y#
0X#
0W#
1V#
1U#
b1111 T#
b1110 S#
1R#
0Q#
b1110 P#
b0xxx O#
b0xxx N#
b1111 M#
b111 L#
b0 K#
b1111 J#
0I#
1H#
1G#
1F#
1E#
0D#
1C#
1B#
0A#
1@#
1?#
1>#
0=#
0<#
1;#
0:#
09#
08#
07#
06#
05#
14#
03#
02#
01#
00#
0/#
1.#
1-#
0,#
0+#
0*#
0)#
0(#
1'#
0&#
0%#
1$#
0##
1"#
0!#
0~"
1}"
1|"
1{"
1z"
0y"
1x"
1w"
0v"
0u"
1t"
0s"
1r"
1q"
1p"
0o"
1n"
1m"
0l"
0k"
0j"
0i"
1h"
0g"
1f"
1e"
1d"
0c"
1b"
1a"
0`"
0_"
1^"
0]"
1\"
0["
bx Z"
bx Y"
b1111 X"
b1110 W"
b1111 V"
b1 U"
b1110 T"
b1001 S"
b1110 R"
b0 Q"
b10 P"
b110 O"
b0 N"
b0 M"
b1111 L"
0K"
1J"
1I"
0H"
1G"
0F"
0E"
0D"
1C"
0B"
1A"
0@"
0?"
0>"
0="
0<"
0;"
0:"
09"
08"
07"
06"
05"
14"
03"
12"
11"
00"
1/"
0."
0-"
0,"
1+"
0*"
1)"
0("
0'"
0&"
1%"
1$"
1#"
0""
0!"
0~
0}
0|
0{
0z
1y
1x
0w
0v
0u
1t
b100 s
b100 r
b10 q
b1001 p
b110 o
1n
b110 m
b1001 l
b1111 i
b100 h
b100 g
b11 f
b1110 e
b10 d
0c
b10 b
b1110 a
b0 ^
b1111 ]
b100 \
b100 [
b1 Z
b0 Y
b0 X
b1 W
b0 V
0U
1T
b0 S
b1 R
b0 O
b1111 N
b100 M
b100 L
b100 K
b0 J
b111 I
b1111 H
b1110 G
0F
1E
b1110 D
b1111 C
b111 B
0A
b0 >
b1111 =
bx <
bx ;
b1110 :
b1111 9
b1111 6
b1 5
b1110 4
b1001 3
b1110 2
b0 1
b10 0
b110 /
b0 .
b0 -
b1111 ,
1+
b0 *
1)
b0 (
b1111 '
bx $
bx #
bx "
bx !
$end
#2000
0)
#3000
b1111 #
b1111 Y"
b1110 !
b1110 Z"
b1110 "
b1110 <
b1111 $
b1111 ;
1)
#4000
b1 W"
0I"
1="
0C"
0t
0G"
1;"
0A"
1&#
0J"
03$
12$
1%#
0'#
1+"
1G#
11"
b1110 X"
b1 P#
1I#
0H#
0t#
b1zzz A$
1<$
04#
1!#
1##
0$#
0+#
1)"
1C#
0D#
1E#
1/"
b1 R"
b1 S#
0F#
0%"
19#
0?#
0s#
1u#
0:$
1;$
0|"
1~"
0"#
1*#
1v"
0@#
1A#
0B#
0$"
13#
0>#
0i#
0q#
1r#
b1111 ?$
b1111 P"
b1111 C$
b0 T"
b0 D$
1.$
19$
0z"
0b"
0n"
0q"
0}"
1k"
1u"
0w"
0{"
12#
1=#
0f#
0`#
0n#
1d#
0e#
1h#
1p#
0+$
0-$
18$
bx 9
b1 :
0\"
0^"
0a"
1c"
0e"
1j"
1o"
0t"
b1110 M#
b1110 V"
b1110 T#
10#
1<#
0V#
0Y#
0Z#
1a#
1b#
0c#
1g#
1o#
0'$
0($
0)$
1,$
17$
1A
b111 J
b100 L
1E
b1 G
b111 B
b1 2
b1 D
bx 6
bx C
b111 I
b1110 H
b0 K
b100 \
b100 [
1T
b1 Z
b1 W
b1 5
b1 R
b100 h
b100 g
b1111 e
b100 f
b1111 d
b1111 0
b1111 b
b0 4
b0 a
0)
b111 (
b111 -
b111 >
b111 O
b111 ^
b111 M"
b111 K#
b111 {#
b111 >$
#5000
b1 "
b1 <
bx $
bx ;
b1 !
b1 Z"
b1110 #
b1110 Y"
b110 X"
1F#
0E#
04"
0C#
1D#
1/#
02"
b100 "$
b0 !$
b0 ~#
13$
02$
b0zz1 Q$
0-#
0w#
b100 Q"
b100 %$
b110 M#
b110 V"
b110 T#
1y#
b0 U"
b0 &$
b0zzz A$
1J$
b100 O"
b100 T$
b100 R$
1,#
0U#
1v#
0*$
bx 9
b1 :
1_"
0.#
0x#
b1 ?$
b1 P"
b1 C$
1E$
b111 S"
b111 U$
0M$
0N$
1Q#
1#$
1B$
1F
b100 L
0E
b1 G
b111 B
1A
b1 2
b1 D
bx 6
bx C
b111 J
b111 I
b110 H
b100 1
b100 S
b100 V
b100 \
1U
b100 [
0T
b0 Z
b0 W
b0 5
b0 R
b100 h
1c
b100 g
b111 e
b11 f
b1 d
b1 0
b1 b
b100 s
b100 r
0n
b11 q
b100 o
b111 p
b100 /
b100 m
b111 3
b111 l
0R#
0$$
0S$
1)
b1111 (
b1111 -
b1111 >
b1111 O
b1111 ^
b1111 M"
b1111 K#
b1111 {#
b1111 >$
b111 '
b111 ,
b111 =
b111 N
b111 ]
b111 i
b111 L"
b111 J#
b111 z#
b111 =$
b111 P$
#6000
0)
#7000
b110 #
b110 Y"
1)
#8000
0="
b111 X"
b100 W"
0)"
0/"
0;"
0F"
1~
1I"
0:"
0#"
0E"
1}
1*"
10"
1H"
08"
0x
0y
0z
1|
0!"
b111 9
b100 :
b11 *
b11 .
b11 N"
#9000
1B#
0G#
0A#
1+#
b0 R"
b0 S#
b0 P#
0I#
0H#
0+"
b110 W"
1?#
0!#
1F#
0*"
1C"
b1101 X"
0x"
0~"
1"#
1D#
0E#
1B"
17"
11"
0*#
09#
0v"
1y"
1}"
1;#
1>#
1m#
b1zz1 Q$
15"
10"
1i"
0k"
03#
0u"
1w"
1{"
b100 M#
b100 V"
b100 T#
0:#
0=#
1\#
0l#
0y#
b1zzz A$
13$
0J$
b110 O"
b110 T$
b110 R$
b1101 9
b110 :
0_"
1`"
0h"
1t"
1.#
0<#
1W#
0]#
1x#
b11 ?$
b11 P"
b11 C$
01$
0E$
1M$
1N$
b1101 S"
b1101 U$
b1 K
b100 M
1E
b100 L
1F
b0 G
b111 B
0A
b0 2
b0 D
b100 6
b100 C
b111 J
b11 I
b100 H
b100 \
b111 Y
b11 X
1T
b100 [
1U
b100 V
b100 1
b100 S
b100 h
b100 g
1c
b1011 e
b11 f
b11 d
b11 0
b11 b
b100 s
1n
b100 r
b11 q
b110 o
b1101 p
b110 /
b110 m
b1101 3
b1101 l
1R#
1$$
1S$
0)
b1011 '
b1011 ,
b1011 =
b1011 N
b1011 ]
b1011 i
b1011 L"
b1011 J#
b1011 z#
b1011 =$
b1011 P$
#10000
b110 "
b110 <
b1101 $
b1101 ;
b110 !
b110 Z"
b1101 #
b1101 Y"
1)
#11000
0)
#12000
b0 P#
b101 W"
0C"
b0 R"
b0 S#
01"
1="
0B"
07"
0H#
00"
1<"
05"
1@#
0+#
0G#
b101 R$
b0 X"
1s"
0A#
1B#
0k#
0r#
1j#
1s#
b101 O"
b101 T$
0~
1l"
0r"
1q"
1|"
0p"
02#
0b#
1^#
0d#
1e#
1:$
0;$
0N$
1H$
0I$
1L$
0}
bx 9
b101 :
1["
1]"
0d"
1e"
0j"
0m"
b111 M#
b111 V"
b111 T#
00#
1X#
1[#
0_#
1c#
06$
09$
0F$
0G$
0K$
0M$
b0zz0 Q$
b100 M
b100 L
1F
1E
b111 B
b111 6
b111 C
b111 J
b0 I
b111 H
b11 K
b100 \
b100 [
1U
1T
b100 V
b0 X
b111 Y
b100 1
b100 S
b100 h
b100 g
1c
b1000 e
b1 f
b11 d
b11 0
b11 b
b100 s
b100 r
1n
b0 q
b101 o
b0 p
b101 /
b101 m
bx 3
bx l
b0 S"
b0 U$
b1000 '
b1000 ,
b1000 =
b1000 N
b1000 ]
b1000 i
b1000 L"
b1000 J#
b1000 z#
b1000 =$
b1000 P$
1)
#13000
0)
#14000
b101 "
b101 <
bx $
bx ;
b101 !
b101 Z"
b0 #
b0 Y"
1)
